fpga/SPI_Slave_TB.vcd
$date
	Thu Jun 16 13:46:36 2022
$end
$version
	Icarus Verilog
$end
$timescale
	1s
$end
$scope module SPI_Slave_TB $end
$var wire 1 ! w_CPHA $end
$var wire 1 " w_CPOL $end
$var wire 1 # w_Slave_RX_DV $end
$var wire 8 $ w_Slave_RX_Byte [7:0] $end
$var wire 1 % w_SPI_MOSI $end
$var wire 1 & w_SPI_MISO $end
$var wire 1 ' w_SPI_Clk $end
$var wire 1 ( w_Master_TX_Ready $end
$var wire 1 ) r_Master_RX_DV $end
$var wire 8 * r_Master_RX_Byte [7:0] $end
$var reg 8 + dataLength [7:0] $end
$var reg 2048 , dataPayload [2047:0] $end
$var reg 1 - r_Clk $end
$var reg 1 . r_Master_CS_n $end
$var reg 8 / r_Master_TX_Byte [7:0] $end
$var reg 1 0 r_Master_TX_DV $end
$var reg 1 1 r_Rst_L $end
$var reg 1 2 r_SPI_En $end
$var reg 8 3 r_Slave_TX_Byte [7:0] $end
$var reg 1 4 r_Slave_TX_DV $end
$scope module SPI_Master_UUT $end
$var wire 1 - i_Clk $end
$var wire 1 1 i_Rst_L $end
$var wire 8 5 i_TX_Byte [7:0] $end
$var wire 1 0 i_TX_DV $end
$var wire 1 6 w_CPHA $end
$var wire 1 7 w_CPOL $end
$var wire 1 & i_SPI_MISO $end
$var reg 8 8 o_RX_Byte [7:0] $end
$var reg 1 ) o_RX_DV $end
$var reg 1 ' o_SPI_Clk $end
$var reg 1 % o_SPI_MOSI $end
$var reg 1 ( o_TX_Ready $end
$var reg 1 9 r_Leading_Edge $end
$var reg 3 : r_RX_Bit_Count [2:0] $end
$var reg 1 ; r_SPI_Clk $end
$var reg 2 < r_SPI_Clk_Count [1:0] $end
$var reg 5 = r_SPI_Clk_Edges [4:0] $end
$var reg 3 > r_TX_Bit_Count [2:0] $end
$var reg 8 ? r_TX_Byte [7:0] $end
$var reg 1 @ r_TX_DV $end
$var reg 1 A r_Trailing_Edge $end
$upscope $end
$scope module SPI_Slave_UUT $end
$var wire 1 - i_Clk $end
$var wire 1 1 i_Rst_L $end
$var wire 1 . i_SPI_CS_n $end
$var wire 1 ' i_SPI_Clk $end
$var wire 1 % i_SPI_MOSI $end
$var wire 1 B w_CPHA $end
$var wire 1 C w_CPOL $end
$var wire 1 D w_SPI_Clk $end
$var wire 1 E w_SPI_MISO_Mux $end
$var wire 1 & o_SPI_MISO $end
$var wire 1 # i_TX_DV $end
$var wire 8 F i_TX_Byte [7:0] $end
$var reg 8 G o_RX_Byte [7:0] $end
$var reg 1 # o_RX_DV $end
$var reg 1 H r2_RX_Done $end
$var reg 1 I r3_RX_Done $end
$var reg 1 J r_Preload_MISO $end
$var reg 3 K r_RX_Bit_Count [2:0] $end
$var reg 8 L r_RX_Byte [7:0] $end
$var reg 1 M r_RX_Done $end
$var reg 1 N r_SPI_MISO_Bit $end
$var reg 3 O r_TX_Bit_Count [2:0] $end
$var reg 8 P r_TX_Byte [7:0] $end
$var reg 8 Q r_Temp_RX_Byte [7:0] $end
$upscope $end
$scope task SendMultiByte $end
$var reg 2048 R data [2047:0] $end
$var reg 8 S length [7:0] $end
$var integer 32 T ii [31:0] $end
$upscope $end
$scope task SendSingleByte $end
$var reg 8 U data [7:0] $end
$upscope $end
$upscope $end
$enddefinitions $end
#0
$dumpvars
bx U
bx T
bx S
bx R
bx Q
bx P
bx O
xN
xM
bx L
bx K
xJ
xI
xH
bx G
bx F
xE
xD
0C
1B
xA
x@
bx ?
bx >
bx =
bx <
x;
bx :
x9
bx 8
07
16
b0 5
x4
bx 3
02
01
00
b0 /
1.
0-
bx ,
bx +
bx *
x)
x(
x'
z&
x%
bx $
x#
0"
1!
$end
#2
0E
0M
b0 K
1J
0N
b111 O
1D
b0 $
b0 F
b0 G
0#
0I
0H
b0 P
b0 <
0;
0A
09
b0 =
0(
0@
b0 ?
b111 >
0%
b111 :
0)
b0 *
b0 8
0'
1-
#4
0-
#6
1-
#8
0-
#10
1-
#12
0-
#14
1-
#16
0-
#18
1-
#20
0-
#22
1-
#24
0-
#26
1-
#28
0-
#30
1-
#32
0-
#34
1-
#36
0-
#38
1-
#40
0-
#42
1-
#44
0-
#46
1-
#48
0-
#50
1-
#52
0-
#54
1-
#56
0-
#58
1-
#60
0-
#62
1-
#64
0-
#66
1-
#68
0-
#70
1-
#72
0-
#74
1-
#76
0-
#78
1(
14
b1011010 3
11
1-
#80
0-
#82
1-
#84
0-
#86
1-
#88
0-
#90
1-
#92
0-
#94
1-
#96
0-
#98
1-
#100
0-
#102
1-
#104
0-
#106
1-
#108
0-
#110
1-
#112
0-
#114
1-
#116
0-
#118
04
b11000001 U
1-
#120
0-
#122
0&
0.
10
b11000001 /
b11000001 5
1-
#124
0-
#126
b11000001 ?
1@
b10000 =
0(
00
1-
#128
0-
#130
b1 <
0@
1-
#132
0-
#134
1;
b10 <
19
b1111 =
1-
#136
0-
#138
0D
b11 <
09
1%
b110 >
1'
1-
#140
0-
#142
0;
b0 <
1A
b1110 =
1-
#144
0-
#146
b110 O
0J
bx1 Q
b1 K
1D
b1 <
0A
b110 :
0'
1-
#148
0-
#150
1;
b10 <
19
b1101 =
1-
#152
0-
#154
0D
b11 <
09
b101 >
1'
1-
#156
0-
#158
0;
b0 <
1A
b1100 =
1-
#160
0-
#162
bx11 Q
b10 K
b101 O
1D
b1 <
0A
b101 :
0'
1-
#164
0-
#166
1;
b10 <
19
b1011 =
1-
#168
0-
#170
0D
b11 <
09
0%
b100 >
1'
1-
#172
0-
#174
0;
b0 <
1A
b1010 =
1-
#176
0-
#178
b100 O
bx110 Q
b11 K
1D
b1 <
0A
b100 :
0'
1-
#180
0-
#182
1;
b10 <
19
b1001 =
1-
#184
0-
#186
0D
b11 <
09
b11 >
1'
1-
#188
0-
#190
0;
b0 <
1A
b1000 =
1-
#192
0-
#194
bx1100 Q
b100 K
b11 O
1D
b1 <
0A
b11 :
0'
1-
#196
0-
#198
1;
b10 <
19
b111 =
1-
#200
0-
#202
0D
b11 <
09
b10 >
1'
1-
#204
0-
#206
0;
b0 <
1A
b110 =
1-
#208
0-
#210
b10 O
bx11000 Q
b101 K
1D
b1 <
0A
b10 :
0'
1-
#212
0-
#214
1;
b10 <
19
b101 =
1-
#216
0-
#218
0D
b11 <
09
b1 >
1'
1-
#220
0-
#222
0;
b0 <
1A
b100 =
1-
#224
0-
#226
bx110000 Q
b110 K
b1 O
1D
b1 <
0A
b1 :
0'
1-
#228
0-
#230
1;
b10 <
19
b11 =
1-
#232
0-
#234
0D
b11 <
09
b0 >
1'
1-
#236
0-
#238
0;
b0 <
1A
b10 =
1-
#240
0-
#242
b0 O
bx1100000 Q
b111 K
1D
b1 <
0A
b0 :
0'
1-
#244
0-
#246
1;
b10 <
19
b1 =
1-
#248
0-
#250
0D
b11 <
09
1%
b111 >
1'
1-
#252
0-
#254
0;
b0 <
1A
b0 =
1-
#256
0-
#258
1J
z&
b11000001 L
0M
b11000001 Q
b0 K
b111 O
1.
1D
1(
0A
1)
b111 :
0'
1-
#260
0-
#262
0)
1-
